^C:\USERS\DSOB\SOURCE\REPOS\SZACHYOBIEKTOWOC++\SZACHYOBIEKTOWOC++\DEBUG\PAWN.OBJ|C:\USERS\DSOB\SOURCE\REPOS\SZACHYOBIEKTOWOC++\SZACHYOBIEKTOWOC++\DEBUG\ROOK.OBJ|C:\USERS\DSOB\SOURCE\REPOS\SZACHYOBIEKTOWOC++\SZACHYOBIEKTOWOC++\DEBUG\SZACHYOBIEKTOWOC++.OBJ
C:\USERS\DSOB\SOURCE\REPOS\SZACHYOBIEKTOWOC++\DEBUG\SZACHYOBIEKTOWOC++.EXE
C:\USERS\DSOB\SOURCE\REPOS\SZACHYOBIEKTOWOC++\DEBUG\SZACHYOBIEKTOWOC++.ILK
C:\USERS\DSOB\SOURCE\REPOS\SZACHYOBIEKTOWOC++\DEBUG\SZACHYOBIEKTOWOC++.PDB
